{"photos":{"page":1, "pages":94622, "perpage":50, "total":"4731090", "photo":[{"id":"8552280456", "owner":"8200389@N07", "secret":"5a20e6cd91", "server":"8091", "farm":9, "title":"\u0627\u0648\u0644 \u0645\u0631\u0629 \u0627\u062f\u0634 \u0627\u0644\u0645\u0637\u0628\u062e !  \u0648\u0645\u0627\u0634\u0627\u0644\u0644\u0647 \u0639\u0644\u064a \u0623\u0628\u062f\u0639\u062a \u062e\u0644\u0627\u0635 \u0628\u0635\u064a\u0631 \u0634\u064a\u0641   \u0645\u0646 \u064a\u0628\u064a \u0627\u0644\u0648\u0635\u0641\u0647", "ispublic":1, "isfriend":0, "isfamily":0, "tags":"square squareformat iphoneography instagramapp uploaded:by=instagram foursquare:venue=4f29c6c9e4b0576e6e2c9be4", "description":{"_content":""}, "latitude":51.499099, "longitude":-0.182056, "accuracy":"16", "context":0, "place_id":"Q9wNLbRSV7j12w", "woeid":"35254", "geo_is_family":0, "geo_is_friend":0, "geo_is_contact":0, "geo_is_public":1, "dateupload":"1363103920", "ownername":"atoooma \u2665"}, {"id":"8552257068", "owner":"83385717@N08", "secret":"3b279590a1", "server":"8526", "farm":9, "title":"TAP AIR PORTUGAL AIRBUS A319-111 CS-TTJ", "ispublic":1, "isfriend":0, "isfamily":0, "originalsecret":"f483122181", "originalformat":"jpg", "tags":"heathrow lhr", "description":{"_content":""}, "latitude":51.465023, "longitude":-0.42469, "accuracy":"14", "context":0, "place_id":"BZNwEw5TUrrCMNp9Ag", "woeid":"20093192", "geo_is_family":0, "geo_is_friend":0, "geo_is_contact":0, "geo_is_public":1, "dateupload":"1363103598", "ownername":"Paul's Aircraft and Transport Images"}, {"id":"8551153725", "owner":"83385717@N08", "secret":"0f87ac09e1", "server":"8509", "farm":9, "title":"TAP AIR PORTUGAL AIRBUS A319-111 CS-TTN", "ispublic":1, "isfriend":0, "isfamily":0, "originalsecret":"26cc45a78e", "originalformat":"jpg", "tags":"heathrow lhr", "description":{"_content":""}, "latitude":51.464916, "longitude":-0.424518, "accuracy":"14", "context":0, "place_id":"BZNwEw5TUrrCMNp9Ag", "woeid":"20093192", "geo_is_family":0, "geo_is_friend":0, "geo_is_contact":0, "geo_is_public":1, "dateupload":"1363103599", "ownername":"Paul's Aircraft and Transport Images"}, {"id":"8552282462", "owner":"46968150@N02", "secret":"91dcb63283", "server":"8527", "farm":9, "title":"Icy #sloanesquare #kingsroad #london #sw3 #mic #igerslondon #igersuk #instagood #instalove #instamood #igdaily #winter #photowall", "ispublic":1, "isfriend":0, "isfamily":0, "tags":"square squareformat sutro iphoneography instagramapp uploaded:by=instagram foursquare:venue=501c0255e4b0c7bb9dda7376", "description":{"_content":""}, "latitude":51.492357, "longitude":-0.157258, "accuracy":"16", "context":0, "place_id":"tQG5WI1TUrp5gJmiQg", "woeid":"20089320", "geo_is_family":0, "geo_is_friend":0, "geo_is_contact":0, "geo_is_public":1, "dateupload":"1363103967", "ownername":"kcovophoto"}, {"id":"8550534045", "owner":"78331455@N05", "secret":"62d14db512", "server":"8378", "farm":9, "title":"Mr Quick", "ispublic":1, "isfriend":0, "isfamily":0, "tags":"city motion blur colour london yellow thames underground vanishingpoint angle wide tunnel vision cityoflondon lightroom", "description":{"_content":"Press L to view on black     \n\n\n\n<a href=\"http:\/\/www.facebook.com\/pages\/Scott-Baldock-Photography\/381960201853570\" rel=\"nofollow\"> Facebook<\/a> | <a href=\"https:\/\/twitter.com\/scottbaldock1\" rel=\"nofollow\">Twitter<a><\/a><\/a>"}, "latitude":51.50632, "longitude":-0.12714, "accuracy":"11", "context":0, "place_id":"hP_s5s9VVr5Qcg", "woeid":"44418", "geo_is_family":0, "geo_is_friend":0, "geo_is_contact":0, "geo_is_public":1, "dateupload":"1363103040", "ownername":"Scott Baldock Photography"}, {"id":"8552236186", "owner":"67190199@N03", "secret":"9bc3ee7928", "server":"8378", "farm":9, "title":"#rose #flower #flemings #mayfair #pretty #pink", "ispublic":1, "isfriend":0, "isfamily":0, "tags":"square lofi squareformat iphoneography instagramapp uploaded:by=instagram foursquare:venue=4ac518b8f964a52086a120e3", "description":{"_content":""}, "latitude":51.506437, "longitude":-0.144885, "accuracy":"16", "context":0, "place_id":"rSMLvXhTUrpVxi55jg", "woeid":"20094341", "geo_is_family":0, "geo_is_friend":0, "geo_is_contact":0, "geo_is_public":1, "dateupload":"1363102956", "ownername":"Flemings Mayfair"}, {"id":"8552229078", "owner":"65203116@N08", "secret":"9c5f95ec8d", "server":"8391", "farm":9, "title":"Crossing: #london #tfl #bus #iphonephotography #crossing #darrenpbphotography #instagram", "ispublic":1, "isfriend":0, "isfamily":0, "tags":"square squareformat brannan iphoneography instagramapp uploaded:by=instagram foursquare:venue=4ac518f6f964a52050af20e3", "description":{"_content":""}, "latitude":51.508074, "longitude":-0.124583, "accuracy":"16", "context":0, "place_id":"aOppNH9QV7zH7w", "woeid":"15652", "geo_is_family":0, "geo_is_friend":0, "geo_is_contact":0, "geo_is_public":1, "dateupload":"1363102810", "ownername":"Realdarrenpb"}, {"id":"8551133961", "owner":"59268374@N08", "secret":"52e0ef663b", "server":"8382", "farm":9, "title":"Cutty Sark", "ispublic":1, "isfriend":0, "isfamily":0, "tags":"", "description":{"_content":""}, "latitude":51.482665, "longitude":-0.011157, "accuracy":"14", "context":0, "place_id":"9l0yiMFTVrI4L8XwTw", "woeid":"24875641", "geo_is_family":0, "geo_is_friend":0, "geo_is_contact":0, "geo_is_public":1, "dateupload":"1363103017", "ownername":"AndyB2210"}, {"id":"8552203096", "owner":"80797940@N02", "secret":"576d1ff644", "server":"8247", "farm":9, "title":"5037 - Lindt lindor - locksbottom", "ispublic":1, "isfriend":0, "isfamily":0, "originalsecret":"d405a04de6", "originalformat":"jpg", "tags":"uploaded:by=flickrmobile flickriosapp:filter=nofilter", "description":{"_content":""}, "latitude":51.366, "longitude":0.055333, "accuracy":"16", "context":0, "place_id":"SB2LLZFQW7N3eA", "woeid":"19941", "geo_is_family":0, "geo_is_friend":0, "geo_is_contact":0, "geo_is_public":1, "dateupload":"1363102233", "ownername":"Sainsbury's Sampling"}, {"id":"8552201618", "owner":"80797940@N02", "secret":"f631505ede", "server":"8098", "farm":9, "title":"5037 - Lindt lindor - locksbottom", "ispublic":1, "isfriend":0, "isfamily":0, "originalsecret":"fbf49e6eb1", "originalformat":"jpg", "tags":"uploaded:by=flickrmobile flickriosapp:filter=nofilter", "description":{"_content":""}, "latitude":51.366, "longitude":0.055333, "accuracy":"16", "context":0, "place_id":"SB2LLZFQW7N3eA", "woeid":"19941", "geo_is_family":0, "geo_is_friend":0, "geo_is_contact":0, "geo_is_public":1, "dateupload":"1363102201", "ownername":"Sainsbury's Sampling"}, {"id":"8552204658", "owner":"80797940@N02", "secret":"4252ea604e", "server":"8102", "farm":9, "title":"5037 - Lindt lindor - locksbottom", "ispublic":1, "isfriend":0, "isfamily":0, "originalsecret":"d24eb8b6d4", "originalformat":"jpg", "tags":"uploaded:by=flickrmobile flickriosapp:filter=nofilter", "description":{"_content":""}, "latitude":51.366166, "longitude":0.055166, "accuracy":"16", "context":0, "place_id":"SB2LLZFQW7N3eA", "woeid":"19941", "geo_is_family":0, "geo_is_friend":0, "geo_is_contact":0, "geo_is_public":1, "dateupload":"1363102265", "ownername":"Sainsbury's Sampling"}, {"id":"8551099681", "owner":"80797940@N02", "secret":"f052a49639", "server":"8519", "farm":9, "title":"5037 - Lindt lindor - locksbottom", "ispublic":1, "isfriend":0, "isfamily":0, "originalsecret":"ffe8c438a7", "originalformat":"jpg", "tags":"uploaded:by=flickrmobile flickriosapp:filter=nofilter", "description":{"_content":""}, "latitude":51.366, "longitude":0.055333, "accuracy":"16", "context":0, "place_id":"SB2LLZFQW7N3eA", "woeid":"19941", "geo_is_family":0, "geo_is_friend":0, "geo_is_contact":0, "geo_is_public":1, "dateupload":"1363102220", "ownername":"Sainsbury's Sampling"}, {"id":"8551100787", "owner":"80797940@N02", "secret":"16c49d1e76", "server":"8231", "farm":9, "title":"5037 - Lindt lindor - locksbottom", "ispublic":1, "isfriend":0, "isfamily":0, "originalsecret":"4ec7ce34b7", "originalformat":"jpg", "tags":"uploaded:by=flickrmobile flickriosapp:filter=nofilter", "description":{"_content":""}, "latitude":51.366, "longitude":0.055166, "accuracy":"16", "context":0, "place_id":"SB2LLZFQW7N3eA", "woeid":"19941", "geo_is_family":0, "geo_is_friend":0, "geo_is_contact":0, "geo_is_public":1, "dateupload":"1363102247", "ownername":"Sainsbury's Sampling"}, {"id":"8552205536", "owner":"80797940@N02", "secret":"4ceb486d06", "server":"8234", "farm":9, "title":"5037 - Lindt lindor - locksbottom", "ispublic":1, "isfriend":0, "isfamily":0, "originalsecret":"7ea1a7a56b", "originalformat":"jpg", "tags":"uploaded:by=flickrmobile flickriosapp:filter=nofilter", "description":{"_content":""}, "latitude":51.366166, "longitude":0.055166, "accuracy":"16", "context":0, "place_id":"SB2LLZFQW7N3eA", "woeid":"19941", "geo_is_family":0, "geo_is_friend":0, "geo_is_contact":0, "geo_is_public":1, "dateupload":"1363102286", "ownername":"Sainsbury's Sampling"}, {"id":"8552206262", "owner":"80797940@N02", "secret":"b77c48859e", "server":"8092", "farm":9, "title":"5037 - Lindt lindor - locksbottom", "ispublic":1, "isfriend":0, "isfamily":0, "originalsecret":"c9310c0766", "originalformat":"jpg", "tags":"uploaded:by=flickrmobile flickriosapp:filter=nofilter", "description":{"_content":""}, "latitude":51.366, "longitude":0.055333, "accuracy":"16", "context":0, "place_id":"SB2LLZFQW7N3eA", "woeid":"19941", "geo_is_family":0, "geo_is_friend":0, "geo_is_contact":0, "geo_is_public":1, "dateupload":"1363102300", "ownername":"Sainsbury's Sampling"}, {"id":"8552216076", "owner":"38181284@N06", "secret":"2d8b42cc3b", "server":"8243", "farm":9, "title":"willis building", "ispublic":1, "isfriend":0, "isfamily":0, "tags":"longexposure light blackandwhite bw white motion black building london lines architecture clouds contrast moving high movement day angle curves wideangle filter labs daytime density topaz lightroom neutral willisbuilding daytimelongexposure neutraldensityfilter nd110 vulturelabs bweffects2", "description":{"_content":""}, "latitude":51.50632, "longitude":-0.12714, "accuracy":"11", "context":0, "place_id":"hP_s5s9VVr5Qcg", "woeid":"44418", "geo_is_family":0, "geo_is_friend":0, "geo_is_contact":0, "geo_is_public":1, "dateupload":"1363102660", "ownername":"vulture labs"}, {"id":"8552184414", "owner":"70287008@N08", "secret":"ab1e3232c7", "server":"8101", "farm":9, "title":"The Mall", "ispublic":1, "isfriend":0, "isfamily":0, "tags":"", "description":{"_content":""}, "latitude":51.502645, "longitude":-0.138605, "accuracy":"16", "context":0, "place_id":"xG9FDI1TUroph1z.lw", "woeid":"20094351", "geo_is_family":0, "geo_is_friend":0, "geo_is_contact":0, "geo_is_public":1, "dateupload":"1363102137", "ownername":"Vespafreak_1000D"}, {"id":"8552184984", "owner":"70287008@N08", "secret":"fe1dc04220008a", "server":"8092", "farm":9, "title":"Victoria Memorial", "ispublic":1, "isfriend":0, "isfamily":0, "tags":"", "description":{"_content":""}, "latitude":51.501596, "longitude":-0.140397, "accuracy":"16", "context":0, "place_id":"yy7TEQtVUbhVOw", "woeid":"43246", "geo_is_family":0, "geo_is_friend":0, "geo_is_contact":0, "geo_is_public":1, "dateupload":"1363102136", "ownername":"Vespafreak_1000D"}, {"id":"8552180170", "owner":"70287008@N08", "secret":"10c136868a", "server":"8524", "farm":9, "title":"River Thames", "ispublic":1, "isfriend":0, "isfamily":0, "tags":"", "description":{"_content":""}, "latitude":51.502625, "longitude":-0.119583, "accuracy":"16", "context":0, "place_id":"up5njGVTUrqg4WUNsw", "woeid":"20094347", "geo_is_family":0, "geo_is_friend":0, "geo_is_contact":0, "geo_is_public":1, "dateupload":"1363102141", "ownername":"Vespafreak_1000D"}, {"id":"8552182944", "owner":"88041187@N00", "secret":"fd6b360dec", "server":"8100", "farm":9, "title":"La dama de bronce - London", "ispublic":1, "isfriend":0, "isfamily":0, "tags":"", "description":{"_content":"Enfrentito de la casa de Chavela, la reina."}, "latitude":51.501783, "longitude":-0.140547, "accuracy":"16", "context":0, "place_id":"yy7TEQtVUbhVOw", "woeid":"43246", "geo_is_family":0, "geo_is_friend":0, "geo_is_contact":0, "geo_is_public":1, "dateupload":"1363101787", "ownername":"Polycarpio"}, {"id":"8551080867", "owner":"70287008@N08", "secret":"a09405e984", "server":"8103", "farm":9, "title":"River Thames 2", "ispublic":1, "isfriend":0, "isfamily":0, "tags":"", "description":{"_content":""}, "latitude":51.508448, "longitude":-0.098876, "accuracy":"16", "context":0, "place_id":"OSWzL_pTUrqOB8Dpqg", "woeid":"20094299", "geo_is_family":0, "geo_is_friend":0, "geo_is_contact":0, "geo_is_public":1, "dateupload":"1363102138", "ownername":"Vespafreak_1000D"}, {"id":"8551096553", "owner":"94534510@N00", "secret":"bfbab34ef6", "server":"8513", "farm":9, "title":"", "ispublic":1, "isfriend":0, "isfamily":0, "originalsecret":"477e266621", "originalformat":"jpg", "tags":"uploaded:by=flickrmobile flickriosapp:filter=mammoth mammothfilter", "description":{"_content":""}, "latitude":51.527166, "longitude":-0.082334, "accuracy":"16", "context":0, "place_id":"m3hb5ZZSVr3OFg", "woeid":"34709", "geo_is_family":0, "geo_is_friend":0, "geo_is_contact":0, "geo_is_public":1, "dateupload":"1363102149", "ownername":"James Weiner"}, {"id":"8552200422", "owner":"80797940@N02", "secret":"a0f5c782e4", "server":"8252", "farm":9, "title":"5037 - Lindt lindor - locksbottom", "ispublic":1, "isfriend":0, "isfamily":0, "originalsecret":"001776992f", "originalformat":"jpg", "tags":"uploaded:by=flickrmobile flickriosapp:filter=nofilter", "description":{"_content":""}, "latitude":51.366, "longitude":0.055333, "accuracy":"16", "context":0, "place_id":"SB2LLZFQW7N3eA", "woeid":"19941", "geo_is_family":0, "geo_is_friend":0, "geo_is_contact":0, "geo_is_public":1, "dateupload":"1363102175", "ownername":"Sainsbury's Sampling"}, {"id":"8551082713", "owner":"70287008@N08", "secret":"231882413d", "server":"8227", "farm":9, "title":"Big Ben", "ispublic":1, "isfriend":0, "isfamily":0, "tags":"", "description":{"_content":""}, "latitude":51.50002, "longitude":-0.127973, "accuracy":"16", "context":0, "place_id":"_8cuSp1TVrKmbg67ew", "woeid":"24875645", "geo_is_family":0, "geo_is_friend":0, "geo_is_contact":0, "geo_is_public":1, "dateupload":"1363102143", "ownername":"Vespafreak_1000D"}, {"id":"8551093559", "owner":"8586675@N08", "secret":"cff074f057", "server":"8370", "farm":9, "title":"Jay", "ispublic":1, "isfriend":0, "isfamily":0, "originalsecret":"e3c93d6f21", "originalformat":"jpg", "tags":"uploaded:by=flickrmobile flickriosapp:filter=narwhal narwhalfilter", "description":{"_content":""}, "latitude":51.514166, "longitude":-0.128834, "accuracy":"16", "context":0, "place_id":"6_3fh4dTUrq3gOi.uA", "woeid":"20094350", "geo_is_family":0, "geo_is_friend":0, "geo_is_contact":0, "geo_is_public":1, "dateupload":"1363102079", "ownername":"edesbois"}, {"id":"8551083431", "owner":"70287008@N08", "secret":"f5e1abe73e", "server":"8383", "farm":9, "title":"Westminster Abbey", "ispublic":1, "isfriend":0, "isfamily":0, "tags":"", "description":{"_content":""}, "latitude":51.499339, "longitude":-0.127372, "accuracy":"16", "context":0, "place_id":"_8cuSp1TVrKmbg67ew", "woeid":"24875645", "geo_is_family":0, "geo_is_friend":0, "geo_is_contact":0, "geo_is_public":1, "dateupload":"1363102144", "ownername":"Vespafreak_1000D"}, {"id":"8552182488", "owner":"70287008@N08", "secret":"aaca75497f", "server":"8107", "farm":9, "title":"Tower Bridge", "ispublic":1, "isfriend":0, "isfamily":0, "tags":"", "description":{"_content":""}, "latitude":51.507099, "longitude":-0.076625, "accuracy":"16", "context":0, "place_id":"v70Y8qlTUrrLiiTZAg", "woeid":"20094363", "geo_is_family":0, "geo_is_friend":0, "geo_is_contact":0, "geo_is_public":1, "dateupload":"1363102139", "ownername":"Vespafreak_1000D"}, {"id":"8551072169", "owner":"42827648@N07", "secret":"46e8210b37", "server":"8366", "farm":9, "title":"18th january 2013 friday wallington snow DD03 on route 463 School turn", "ispublic":1, "isfriend":0, "isfamily":0, "tags":"snow wallington dd03", "description":{"_content":""}, "latitude":51.360593, "longitude":-0.150718, "accuracy":"16", "context":0, "place_id":"ooSS_udSW7o5Rw", "woeid":"39025", "geo_is_family":0, "geo_is_friend":0, "geo_is_contact":0, "geo_is_public":1, "dateupload":"1363101632", "ownername":"Steve75C"}, {"id":"8551072383", "owner":"70287008@N08", "secret":"fc0221aca3", "server":"8094", "farm":9, "title":"Newburry Park", "ispublic":1, "isfriend":0, "isfamily":0, "tags":"", "description":{"_content":""}, "latitude":51.575522, "longitude":0.090122, "accuracy":"16", "context":0, "place_id":"7ujl.aJVUb.slA", "woeid":"43525", "geo_is_family":0, "geo_is_friend":0, "geo_is_contact":0, "geo_is_public":1, "dateupload":"1363102146", "ownername":"Vespafreak_1000D"}, {"id":"8551080467", "owner":"70287008@N08", "secret":"6a0cf2bc69", "server":"8088", "farm":9, "title":"_MG_0213", "ispublic":1, "isfriend":0, "isfamily":0, "tags":"", "description":{"_content":""}, "latitude":51.508502, "longitude":-0.076839, "accuracy":"16", "context":0, "place_id":"v70Y8qlTUrrLiiTZAg", "woeid":"20094363", "geo_is_family":0, "geo_is_friend":0, "geo_is_contact":0, "geo_is_public":1, "dateupload":"1363102139", "ownername":"Vespafreak_1000D"}, {"id":"8551093137", "owner":"94534510@N00", "secret":"7912515a36", "server":"8518", "farm":9, "title":"", "ispublic":1, "isfriend":0, "isfamily":0, "originalsecret":"5f77d99e44", "originalformat":"jpg", "tags":"uploaded:by=flickrmobile flickriosapp:filter=chameleon chameleonfilter", "description":{"_content":""}, "latitude":51.552333, "longitude":-0.018334, "accuracy":"16", "context":0, "place_id":"Fua5xutVUb_Jlw", "woeid":"43527", "geo_is_family":0, "geo_is_friend":0, "geo_is_contact":0, "geo_is_public":1, "dateupload":"1363102069", "ownername":"James Weiner"}, {"id":"8551078433", "owner":"70287008@N08", "secret":"38f38e68ed", "server":"8227", "farm":9, "title":"London Eye", "ispublic":1, "isfriend":0, "isfamily":0, "tags":"", "description":{"_content":""}, "latitude":51.502892, "longitude":-0.117716, "accuracy":"16", "context":0, "place_id":"up5njGVTUrqg4WUNsw", "woeid":"20094347", "geo_is_family":0, "geo_is_friend":0, "geo_is_contact":0, "geo_is_public":1, "dateupload":"1363102141", "ownername":"Vespafreak_1000D"}, {"id":"8552196596", "owner":"94534510@N00", "secret":"11b74543fd", "server":"8245", "farm":9, "title":"", "ispublic":1, "isfriend":0, "isfamily":0, "originalsecret":"13ec6ca1b6", "originalformat":"jpg", "tags":"uploaded:by=flickrmobile flickriosapp:filter=nofilter", "description":{"_content":""}, "latitude":51.554166, "longitude":-0.009834, "accuracy":"16", "context":0, "place_id":"Fua5xutVUb_Jlw", "woeid":"43527", "geo_is_family":0, "geo_is_friend":0, "geo_is_contact":0, "geo_is_public":1, "dateupload":"1363102083", "ownername":"James Weiner"}, {"id":"8551075887", "owner":"70287008@N08", "secret":"675208fb5d", "server":"8372", "farm":9, "title":"Big Ben", "ispublic":1, "isfriend":0, "isfamily":0, "tags":"", "description":{"_content":""}, "latitude":51.500601, "longitude":-0.125076, "accuracy":"16", "context":0, "place_id":"9bQqh4JVVr5RVw", "woeid":"44417", "geo_is_family":0, "geo_is_friend":0, "geo_is_contact":0, "geo_is_public":1, "dateupload":"1363102144", "ownername":"Vespafreak_1000D"}, {"id":"8552181796", "owner":"70287008@N08", "secret":"eecb4d42f2", "server":"8100", "farm":9, "title":"Tower Bridge 2", "ispublic":1, "isfriend":0, "isfamily":0, "tags":"", "description":{"_content":""}, "latitude":51.507006, "longitude":-0.075895, "accuracy":"16", "context":0, "place_id":"v70Y8qlTUrrLiiTZAg", "woeid":"20094363", "geo_is_family":0, "geo_is_friend":0, "geo_is_contact":0, "geo_is_public":1, "dateupload":"1363102140", "ownername":"Vespafreak_1000D"}, {"id":"8551094369", "owner":"94534510@N00", "secret":"ab4ce14de5", "server":"8520", "farm":9, "title":"", "ispublic":1, "isfriend":0, "isfamily":0, "originalsecret":"c93906d854", "originalformat":"jpg", "tags":"uploaded:by=flickrmobile flickriosapp:filter=nofilter", "description":{"_content":""}, "latitude":51.523333, "longitude":-0.081834, "accuracy":"16", "context":0, "place_id":"m3hb5ZZSVr3OFg", "woeid":"34709", "geo_is_family":0, "geo_is_friend":0, "geo_is_contact":0, "geo_is_public":1, "dateupload":"1363102100", "ownername":"James Weiner"}, {"id":"8551098225", "owner":"80797940@N02", "secret":"562ab00935", "server":"8104", "farm":9, "title":"5037 - Lindt lindor - locksbottom", "ispublic":1, "isfriend":0, "isfamily":0, "originalsecret":"e73defd522", "originalformat":"jpg", "tags":"uploaded:by=flickrmobile flickriosapp:filter=nofilter", "description":{"_content":""}, "latitude":51.366, "longitude":0.055333, "accuracy":"16", "context":0, "place_id":"SB2LLZFQW7N3eA", "woeid":"19941", "geo_is_family":0, "geo_is_friend":0, "geo_is_contact":0, "geo_is_public":1, "dateupload":"1363102188", "ownername":"Sainsbury's Sampling"}, {"id":"8552179598", "owner":"70287008@N08", "secret":"53fd58e972", "server":"8251", "farm":9, "title":"Big Ben 2 @night", "ispublic":1, "isfriend":0, "isfamily":0, "tags":"", "description":{"_content":""}, "latitude":51.502772, "longitude":-0.119583, "accuracy":"16", "context":0, "place_id":"up5njGVTUrqg4WUNsw", "woeid":"20094347", "geo_is_family":0, "geo_is_friend":0, "geo_is_contact":0, "geo_is_public":1, "dateupload":"1363102142", "ownername":"Vespafreak_1000D"}, {"id":"8551075115", "owner":"70287008@N08", "secret":"5faf00b513", "server":"8531", "farm":9, "title":"Royal Albert Hall", "ispublic":1, "isfriend":0, "isfamily":0, "tags":"", "description":{"_content":""}, "latitude":51.501049, "longitude":-0.177326, "accuracy":"16", "context":0, "place_id":"zycK_jRTUrpRQdjcxw", "woeid":"20094326", "geo_is_family":0, "geo_is_friend":0, "geo_is_contact":0, "geo_is_public":1, "dateupload":"1363102145", "ownername":"Vespafreak_1000D"}, {"id":"8551076505", "owner":"70287008@N08", "secret":"aef0506336", "server":"8095", "farm":9, "title":"Big Ben @night", "ispublic":1, "isfriend":0, "isfamily":0, "tags":"", "description":{"_content":""}, "latitude":51.503186, "longitude":-0.119454, "accuracy":"16", "context":0, "place_id":"up5njGVTUrqg4WUNsw", "woeid":"20094347", "geo_is_family":0, "geo_is_friend":0, "geo_is_contact":0, "geo_is_public":1, "dateupload":"1363102143", "ownername":"Vespafreak_1000D"}, {"id":"8552188700", "owner":"21369271@N02", "secret":"cd3e3ba064", "server":"8511", "farm":9, "title":"St. Martins Lab", "ispublic":1, "isfriend":0, "isfamily":0, "tags":"", "description":{"_content":""}, "latitude":51.535611, "longitude":-0.124915, "accuracy":"16", "context":0, "place_id":"At2fqNhTUrq72earag", "woeid":"20094324", "geo_is_family":0, "geo_is_friend":0, "geo_is_contact":0, "geo_is_public":1, "dateupload":"1363102113", "ownername":"Giuseppe Cirasino"}, {"id":"8551089297", "owner":"94534510@N00", "secret":"d1f8db9cd8", "server":"8505", "farm":9, "title":"use this to make any piece of paper into a sticky note!", "ispublic":1, "isfriend":0, "isfamily":0, "originalsecret":"487f6e2859", "originalformat":"jpg", "tags":"uploaded:by=flickrmobile flickriosapp:filter=nofilter", "description":{"_content":""}, "latitude":51.523166, "longitude":-0.082, "accuracy":"16", "context":0, "place_id":"m3hb5ZZSVr3OFg", "woeid":"34709", "geo_is_family":0, "geo_is_friend":0, "geo_is_contact":0, "geo_is_public":1, "dateupload":"1363101979", "ownername":"James Weiner"}, {"id":"8551095139", "owner":"94534510@N00", "secret":"0d9a7b9864", "server":"8509", "farm":9, "title":"", "ispublic":1, "isfriend":0, "isfamily":0, "originalsecret":"12c98cb2e6", "originalformat":"jpg", "tags":"uploaded:by=flickrmobile flickriosapp:filter=nofilter", "description":{"_content":""}, "latitude":51.523166, "longitude":-0.082, "accuracy":"16", "context":0, "place_id":"m3hb5ZZSVr3OFg", "woeid":"34709", "geo_is_family":0, "geo_is_friend":0, "geo_is_contact":0, "geo_is_public":1, "dateupload":"1363102117", "ownername":"James Weiner"}, {"id":"8551047341", "owner":"69975115@N00", "secret":"e969222d36", "server":"8369", "farm":9, "title":"Anthem", "ispublic":1, "isfriend":0, "isfamily":0, "tags":"england italy london sport unitedkingdom rugby anthem sixnations gbr rugbyunion twickenhamstadium sergioparisse gonzalocanale martincastrogiovanni", "description":{"_content":"Sergio Parisse, Martin Castrogiovanni and Gonzalo Canale sing the Italian national anthem prior to the match. RBS Six Nations match between England and Italy on March 10, 2013 at Twickenham Stadium in London, England. Photo by: Patrick Khachfe \/ Onside Images\n\n<a href=\"http:\/\/onsideimages.photoshelter.com\/gallery\/England-v-Italy\/G0000GyiDx4khdCU\/\" target=\"_blank\" rel=\"nofollow\">Full set of photos from this match<\/a>"}, "latitude":51.455992, "longitude":-0.341563, "accuracy":"16", "context":0, "place_id":"suzrZ5FTUrqy6Hp5OQ", "woeid":"20089528", "geo_is_family":0, "geo_is_friend":0, "geo_is_contact":0, "geo_is_public":1, "dateupload":"1363101032", "ownername":"Paddy-K"}, {"id":"8552164416", "owner":"80797940@N02", "secret":"6c6f15bac9", "server":"8100", "farm":9, "title":"OB-sweets-Cycle 18 W1-Sydenham", "ispublic":1, "isfriend":0, "isfamily":0, "originalsecret":"0f41dd5733", "originalformat":"jpg", "tags":"uploaded:by=flickrmobile flickriosapp:filter=nofilter", "description":{"_content":""}, "latitude":51.429833, "longitude":-0.034167, "accuracy":"16", "context":0, "place_id":"Dw3iCgNTUrowWTsZYg", "woeid":"20089487", "geo_is_family":0, "geo_is_friend":0, "geo_is_contact":0, "geo_is_public":1, "dateupload":"1363101337", "ownername":"Sainsbury's Sampling"}, {"id":"8552163166", "owner":"80797940@N02", "secret":"b93c5a3e45", "server":"8368", "farm":9, "title":"OB-sweets-Cycle 18 W1-Sydenham", "ispublic":1, "isfriend":0, "isfamily":0, "originalsecret":"60511d5cb1", "originalformat":"jpg", "tags":"uploaded:by=flickrmobile flickriosapp:filter=nofilter", "description":{"_content":""}, "latitude":51.429833, "longitude":-0.034, "accuracy":"16", "context":0, "place_id":"Dw3iCgNTUrowWTsZYg", "woeid":"20089487", "geo_is_family":0, "geo_is_friend":0, "geo_is_contact":0, "geo_is_public":1, "dateupload":"1363101311", "ownername":"Sainsbury's Sampling"}, {"id":"8552170774", "owner":"80797940@N02", "secret":"160079d99e", "server":"8096", "farm":9, "title":"OB-sweets-Cycle 18 W1-Sydenham", "ispublic":1, "isfriend":0, "isfamily":0, "originalsecret":"09e9c6636d", "originalformat":"jpg", "tags":"uploaded:by=flickrmobile flickriosapp:filter=nofilter", "description":{"_content":""}, "latitude":51.429666, "longitude":-0.034167, "accuracy":"16", "context":0, "place_id":"Dw3iCgNTUrowWTsZYg", "woeid":"20089487", "geo_is_family":0, "geo_is_friend":0, "geo_is_contact":0, "geo_is_public":1, "dateupload":"1363101475", "ownername":"Sainsbury's Sampling"}, {"id":"8551069395", "owner":"80797940@N02", "secret":"128d2b4914", "server":"8240", "farm":9, "title":"OB-sweets-Cycle 18 W1-Sydenham", "ispublic":1, "isfriend":0, "isfamily":0, "originalsecret":"64a145a848", "originalformat":"jpg", "tags":"uploaded:by=flickrmobile flickriosapp:filter=nofilter", "description":{"_content":""}, "latitude":51.429666, "longitude":-0.034334, "accuracy":"16", "context":0, "place_id":"Dw3iCgNTUrowWTsZYg", "woeid":"20086A19487", "geo_is_family":0, "geo_is_friend":0, "geo_is_contact":0, "geo_is_public":1, "dateupload":"1363101501", "ownername":"Sainsbury's Sampling"}, {"id":"8552149300", "owner":"69975115@N00", "secret":"71e104548f", "server":"8095", "farm":9, "title":"Geoff Parling", "ispublic":1, "isfriend":0, "isfamily":0, "tags":"england italy london sport unitedkingdom rugby lineout sixnations gbr rugbyunion twickenhamstadium geoffparling", "description":{"_content":"Geoff Parling rises high to win lineout ball. RBS Six Nations match between England and Italy on March 10, 2013 at Twickenham Stadium in London, England. Photo by: Patrick Khachfe \/ Onside Images\n\n<a href=\"http:\/\/onsideimages.photoshelter.com\/gallery\/England-v-Italy\/G0000GyiDx4khdCU\/\" target=\"_blank\" rel=\"nofollow\">Full set of photos from this match<\/a>"}, "latitude":51.455992, "longitude":-0.341563, "accuracy":"16", "context":0, "place_id":"suzrZ5FTUrqy6Hp5OQ", "woeid":"20089528", "geo_is_family":0, "geo_is_friend":0, "geo_is_contact":0, "geo_is_public":1, "dateupload":"1363101015", "ownername":"Paddy-K"}, {"id":"8552149840", "owner":"80797940@N02", "secret":"8fdf845dfb", "server":"8110", "farm":9, "title":"5038-Lindt-Streatham Common", "ispublic":1, "isfriend":0, "isfamily":0, "originalsecret":"40d937c209", "originalformat":"jpg", "tags":"uploaded:by=flickrmobile flickriosapp:filter=nofilter", "description":{"_content":""}, "latitude":51.420333, "longitude":-0.136167, "accuracy":"16", "context":0, "place_id":"hFvY0VdTUrpRam.rjA", "woeid":"20089509", "geo_is_family":0, "geo_is_friend":0, "geo_is_contact":0, "geo_is_public":1, "dateupload":"1363101025", "ownername":"Sainsbury's Sampling"}]}, "stat":"ok"}